module github.com/blankspace9/task-cars

go 1.21.6

require github.com/gorilla/mux v1.8.1

require (
	github.com/BurntSushi/toml v1.2.1 // indirect
	github.com/KyleBanks/depth v1.2.1 // indirect
	github.com/PuerkitoBio/purell v1.1.1 // indirect
	github.com/PuerkitoBio/urlesc v0.0.0-20170810143723-de5bf2ad4578 // indirect
	github.com/go-openapi/jsonpointer v0.19.5 // indirect
	github.com/go-openapi/jsonreference v0.19.6 // indirect
	github.com/go-openapi/spec v0.20.4 // indirect
	github.com/go-openapi/swag v0.19.15 // indirect
	github.com/golang-migrate/migrate/v4 v4.17.0 // indirect
	github.com/hashicorp/errwrap v1.1.0 // indirect
	github.com/hashicorp/go-multierror v1.1.1 // indirect
	github.com/ilyakaznacheev/cleanenv v1.5.0 // indirect
	github.com/joho/godotenv v1.5.1 // indirect
	github.com/josharian/intern v1.0.0 // indirect
	github.com/lib/pq v1.10.9 // indirect
	github.com/mailru/easyjson v0.7.6 // indirect
	github.com/swaggo/swag v1.16.3 // indirect
	go.uber.org/atomic v1.7.0 // indirect
	golang.org/x/net v0.18.0 // indirect
	golang.org/x/sys v0.15.0 // indirect
	golang.org/x/text v0.14.0 // indirect
	golang.org/x/tools v0.10.0 // indirect
	gopkg.in/yaml.v2 v2.4.0 // indirect
	gopkg.in/yaml.v3 v3.0.1 // indirect
	olympos.io/encoding/edn v0.0.0-20201019073823-d3554ca0b0a3 // indirect
)
